EESchema Schematic File Version 4
LIBS:rpi_i2c_1w-cache
EELAYER 30 0
EELAYER END
$Descr USLetter 11000 8500
encoding utf-8
Sheet 1 1
Title ""
Date "2020-02-07"
Rev ""
Comp ""
Comment1 ""
Comment2 ""
Comment3 ""
Comment4 ""
$EndDescr
$Comp
L power:+5V #PWR06
U 1 1 580C1B61
P 3000 2400
F 0 "#PWR06" H 3000 2250 50  0001 C CNN
F 1 "+5V" H 3000 2540 50  0000 C CNN
F 2 "" H 3000 2400 50  0000 C CNN
F 3 "" H 3000 2400 50  0000 C CNN
	1    3000 2400
	1    0    0    -1  
$EndComp
Wire Wire Line
	3000 2400 3000 2550
Wire Wire Line
	3000 2550 2800 2550
Wire Wire Line
	3000 2650 2800 2650
Connection ~ 3000 2550
$Comp
L power:GND #PWR03
U 1 1 580C1D11
P 2900 4600
F 0 "#PWR03" H 2900 4350 50  0001 C CNN
F 1 "GND" H 2900 4450 50  0000 C CNN
F 2 "" H 2900 4600 50  0000 C CNN
F 3 "" H 2900 4600 50  0000 C CNN
	1    2900 4600
	1    0    0    -1  
$EndComp
Wire Wire Line
	2900 2750 2900 3150
Wire Wire Line
	2900 4150 2800 4150
Wire Wire Line
	2900 3950 2800 3950
Connection ~ 2900 4150
Wire Wire Line
	2900 3450 2800 3450
Connection ~ 2900 3950
Wire Wire Line
	2900 3150 2800 3150
Connection ~ 2900 3450
$Comp
L power:GND #PWR02
U 1 1 580C1E01
P 2200 4600
F 0 "#PWR02" H 2200 4350 50  0001 C CNN
F 1 "GND" H 2200 4450 50  0000 C CNN
F 2 "" H 2200 4600 50  0000 C CNN
F 3 "" H 2200 4600 50  0000 C CNN
	1    2200 4600
	1    0    0    -1  
$EndComp
Wire Wire Line
	2200 4450 2300 4450
Wire Wire Line
	2200 2950 2200 3750
Wire Wire Line
	2200 3750 2300 3750
Connection ~ 2200 4450
Connection ~ 2100 2550
Wire Wire Line
	2100 3350 2300 3350
Wire Wire Line
	2100 2550 2300 2550
Wire Wire Line
	2100 2400 2100 2550
$Comp
L power:+3.3V #PWR01
U 1 1 580C1BC1
P 2100 2400
F 0 "#PWR01" H 2100 2250 50  0001 C CNN
F 1 "+3.3V" H 2100 2540 50  0000 C CNN
F 2 "" H 2100 2400 50  0000 C CNN
F 3 "" H 2100 2400 50  0000 C CNN
	1    2100 2400
	1    0    0    -1  
$EndComp
Wire Wire Line
	2200 2950 2300 2950
Connection ~ 2200 3750
Wire Wire Line
	2300 2650 1150 2650
Wire Wire Line
	1150 2750 2300 2750
Wire Wire Line
	1150 2850 2300 2850
Wire Wire Line
	2300 3050 1150 3050
Wire Wire Line
	1150 3150 2300 3150
Wire Wire Line
	1150 3250 2300 3250
Wire Wire Line
	2300 3450 1150 3450
Wire Wire Line
	1150 3550 2300 3550
Wire Wire Line
	1150 3650 2300 3650
Wire Wire Line
	2300 3850 1150 3850
Wire Wire Line
	1150 3950 2300 3950
Wire Wire Line
	1150 4050 2300 4050
Wire Wire Line
	2300 4150 1150 4150
Wire Wire Line
	1150 4250 2300 4250
Wire Wire Line
	1150 4350 2300 4350
Wire Wire Line
	2800 4250 3850 4250
Wire Wire Line
	2800 4350 3850 4350
Wire Wire Line
	2800 3750 3850 3750
Wire Wire Line
	2800 3850 3850 3850
Wire Wire Line
	2800 3550 3850 3550
Wire Wire Line
	2800 3650 3850 3650
Wire Wire Line
	2800 3250 3850 3250
Wire Wire Line
	2800 3350 3850 3350
Wire Wire Line
	2800 2950 3850 2950
Wire Wire Line
	2800 3050 3850 3050
Wire Wire Line
	2800 2850 3850 2850
Wire Wire Line
	2800 4050 3850 4050
Text Label 1150 2650 0    50   ~ 0
GPIO2(SDA1)
Text Label 1150 2750 0    50   ~ 0
GPIO3(SCL1)
Text Label 1150 2850 0    50   ~ 0
GPIO4(GCLK)
Text Label 1150 3050 0    50   ~ 0
GPIO17(GEN0)
Text Label 1150 3150 0    50   ~ 0
GPIO27(GEN2)
Text Label 1150 3250 0    50   ~ 0
GPIO22(GEN3)
Text Label 1150 3450 0    50   ~ 0
GPIO10(SPI0_MOSI)
Text Label 1150 3550 0    50   ~ 0
GPIO9(SPI0_MISO)
Text Label 1150 3650 0    50   ~ 0
GPIO11(SPI0_SCK)
Text Label 1150 3850 0    50   ~ 0
ID_SD
Text Label 1150 3950 0    50   ~ 0
GPIO5
Text Label 1150 4050 0    50   ~ 0
GPIO6
Text Label 1150 4150 0    50   ~ 0
GPIO13(PWM1)
Text Label 1150 4250 0    50   ~ 0
GPIO19(SPI1_MISO)
Text Label 1150 4350 0    50   ~ 0
GPIO26
Text Label 3850 4350 2    50   ~ 0
GPIO20(SPI1_MOSI)
Text Label 3850 4250 2    50   ~ 0
GPIO16
Text Label 3850 4050 2    50   ~ 0
GPIO12(PWM0)
Text Label 3850 3850 2    50   ~ 0
ID_SC
Text Label 3850 3750 2    50   ~ 0
GPIO7(SPI1_CE_N)
Text Label 3850 3650 2    50   ~ 0
GPIO8(SPI0_CE_N)
Text Label 3850 3550 2    50   ~ 0
GPIO25(GEN6)
Text Label 3850 3350 2    50   ~ 0
GPIO24(GEN5)
Text Label 3850 3250 2    50   ~ 0
GPIO23(GEN4)
Text Label 3850 3050 2    50   ~ 0
GPIO18(GEN1)(PWM0)
Text Label 3850 2950 2    50   ~ 0
GPIO15(RXD0)
Text Label 3850 2850 2    50   ~ 0
GPIO14(TXD0)
Wire Wire Line
	2900 2750 2800 2750
Connection ~ 2900 3150
Text Notes 650  7600 0    50   ~ 0
ID_SD and ID_SC PINS:\nThese pins are reserved for HAT ID EEPROM.\n\nAt boot time this I2C interface will be\ninterrogated to look for an EEPROM\nthat identifes the attached board and\nallows automagic setup of the GPIOs\n(and optionally, Linux drivers).\n\nDO NOT USE these pins for anything other\nthan attaching an I2C ID EEPROM. Leave\nunconnected if ID EEPROM not required.
$Comp
L Mechanical:MountingHole MK1
U 1 1 5834FB2E
P 3000 7200
F 0 "MK1" H 3100 7246 50  0000 L CNN
F 1 "M2.5" H 3100 7155 50  0000 L CNN
F 2 "MountingHole:MountingHole_2.7mm_M2.5" H 3000 7200 60  0001 C CNN
F 3 "" H 3000 7200 60  0001 C CNN
	1    3000 7200
	1    0    0    -1  
$EndComp
$Comp
L Mechanical:MountingHole MK3
U 1 1 5834FBEF
P 3450 7200
F 0 "MK3" H 3550 7246 50  0000 L CNN
F 1 "M2.5" H 3550 7155 50  0000 L CNN
F 2 "MountingHole:MountingHole_2.7mm_M2.5" H 3450 7200 60  0001 C CNN
F 3 "" H 3450 7200 60  0001 C CNN
	1    3450 7200
	1    0    0    -1  
$EndComp
$Comp
L Mechanical:MountingHole MK2
U 1 1 5834FC19
P 3000 7400
F 0 "MK2" H 3100 7446 50  0000 L CNN
F 1 "M2.5" H 3100 7355 50  0000 L CNN
F 2 "MountingHole:MountingHole_2.7mm_M2.5" H 3000 7400 60  0001 C CNN
F 3 "" H 3000 7400 60  0001 C CNN
	1    3000 7400
	1    0    0    -1  
$EndComp
$Comp
L Mechanical:MountingHole MK4
U 1 1 5834FC4F
P 3450 7400
F 0 "MK4" H 3550 7446 50  0000 L CNN
F 1 "M2.5" H 3550 7355 50  0000 L CNN
F 2 "MountingHole:MountingHole_2.7mm_M2.5" H 3450 7400 60  0001 C CNN
F 3 "" H 3450 7400 60  0001 C CNN
	1    3450 7400
	1    0    0    -1  
$EndComp
Text Notes 3000 7050 0    50   ~ 0
Mounting Holes
$Comp
L Connector_Generic:Conn_02x20_Odd_Even P1
U 1 1 59AD464A
P 2500 3450
F 0 "P1" H 2550 4567 50  0000 C CNN
F 1 "Conn_02x20_Odd_Even" H 2550 4476 50  0000 C CNN
F 2 "Connector_PinSocket_2.54mm:PinSocket_2x20_P2.54mm_Vertical" H -2350 2500 50  0001 C CNN
F 3 "" H -2350 2500 50  0001 C CNN
F 4 "1" H 2500 3450 50  0001 C CNN "DK Min Qty"
F 5 "S9200-ND" H 2500 3450 50  0001 C CNN "DK PN"
F 6 "1.94" H 2500 3450 50  0001 C CNN "DK Price"
F 7 "1" H 2500 3450 50  0001 C CNN "LCSC Min Qty"
F 8 "C50982" H 2500 3450 50  0001 C CNN "LCSC PN"
F 9 ".14" H 2500 3450 50  0001 C CNN "LCSC Price"
	1    2500 3450
	1    0    0    -1  
$EndComp
Wire Wire Line
	2800 4450 3850 4450
Text Label 3850 4450 2    50   ~ 0
GPIO21(SPI1_SCK)
Wire Wire Line
	3000 2550 3000 2650
Wire Wire Line
	2900 4150 2900 4600
Wire Wire Line
	2900 3950 2900 4150
Wire Wire Line
	2900 3450 2900 3950
Wire Wire Line
	2200 4450 2200 4600
Wire Wire Line
	2100 2550 2100 3350
Wire Wire Line
	2200 3750 2200 4450
Wire Wire Line
	2900 3150 2900 3450
$Comp
L Transistor_FET:BSS138 Q1
U 1 1 5E3DE0E4
P 5050 2850
F 0 "Q1" V 5301 2850 50  0000 C CNN
F 1 "BSS138" V 5392 2850 50  0000 C CNN
F 2 "Package_TO_SOT_SMD:SOT-23" H 5250 2775 50  0001 L CIN
F 3 "https://www.fairchildsemi.com/datasheets/BS/BSS138.pdf" H 5050 2850 50  0001 L CNN
F 4 "Diodes Inc" H 5050 2850 50  0001 C CNN "Mfr"
F 5 "BSS138-7-F" H 5050 2850 50  0001 C CNN "Mfr PN"
F 6 "20" H 5050 2850 50  0001 C CNN "LCSC Min Qty"
F 7 "C40912" H 5050 2850 50  0001 C CNN "LCSC PN"
F 8 "1" H 5050 2850 50  0001 C CNN "DK Min Qty"
F 9 "BSS138-FDICT-ND" H 5050 2850 50  0001 C CNN "DK PN"
F 10 ".20" H 5050 2850 50  0001 C CNN "DK Price"
F 11 ".022" H 5050 2850 50  0001 C CNN "LCSC Price"
	1    5050 2850
	0    1    1    0   
$EndComp
$Comp
L Device:R_US R1
U 1 1 5E3E14DA
P 4800 2750
F 0 "R1" H 4732 2704 50  0000 R CNN
F 1 "10k" H 4732 2795 50  0000 R CNN
F 2 "Resistor_SMD:R_0805_2012Metric" V 4840 2740 50  0001 C CNN
F 3 "~" H 4800 2750 50  0001 C CNN
F 4 "10" H 4800 2750 50  0001 C CNN "DK Min Qty"
F 5 "311-10.0KCRCT-ND" H 4800 2750 50  0001 C CNN "DK PN"
F 6 ".04" H 4800 2750 50  0001 C CNN "DK Price"
F 7 "100" H 4800 2750 50  0001 C CNN "LCSC Min Qty"
F 8 "C115309" H 4800 2750 50  0001 C CNN "LCSC PN"
F 9 ".0013" H 4800 2750 50  0001 C CNN "LCSC Price"
	1    4800 2750
	1    0    0    1   
$EndComp
$Comp
L Device:R_US R4
U 1 1 5E3E1BEB
P 5300 2750
F 0 "R4" H 5368 2796 50  0000 L CNN
F 1 "1k" H 5368 2705 50  0000 L CNN
F 2 "Resistor_SMD:R_0805_2012Metric" V 5340 2740 50  0001 C CNN
F 3 "~" H 5300 2750 50  0001 C CNN
F 4 "10" H 5300 2750 50  0001 C CNN "DK Min Qty"
F 5 "311-1.00KCRCT-ND" H 5300 2750 50  0001 C CNN "DK PN"
F 6 ".04" H 5300 2750 50  0001 C CNN "DK Price"
F 7 "100" H 5300 2750 50  0001 C CNN "LCSC Min Qty"
F 8 "C115316" H 5300 2750 50  0001 C CNN "LCSC PN"
F 9 ".0014" H 5300 2750 50  0001 C CNN "LCSC Price"
	1    5300 2750
	1    0    0    -1  
$EndComp
Text GLabel 1150 2850 0    50   BiDi ~ 0
GPIO4
Text GLabel 4750 2950 0    50   BiDi ~ 0
GPIO4
Wire Wire Line
	4750 2950 4800 2950
Wire Wire Line
	4800 2950 4800 2900
Connection ~ 4800 2950
Wire Wire Line
	4800 2950 4850 2950
$Comp
L power:+3.3V #PWR07
U 1 1 5E3E4F45
P 4800 2500
F 0 "#PWR07" H 4800 2350 50  0001 C CNN
F 1 "+3.3V" H 4800 2640 50  0000 C CNN
F 2 "" H 4800 2500 50  0000 C CNN
F 3 "" H 4800 2500 50  0000 C CNN
	1    4800 2500
	1    0    0    -1  
$EndComp
Text GLabel 5350 2950 2    50   BiDi ~ 0
1WIRE
Wire Wire Line
	5250 2950 5300 2950
Wire Wire Line
	5300 2950 5300 2900
Wire Wire Line
	5350 2950 5300 2950
Connection ~ 5300 2950
Wire Wire Line
	4800 2500 4800 2600
Wire Wire Line
	4800 2600 5050 2600
Wire Wire Line
	5050 2600 5050 2650
Connection ~ 4800 2600
$Comp
L power:+5V #PWR010
U 1 1 5E3EA8E1
P 5300 2500
F 0 "#PWR010" H 5300 2350 50  0001 C CNN
F 1 "+5V" H 5300 2640 50  0000 C CNN
F 2 "" H 5300 2500 50  0000 C CNN
F 3 "" H 5300 2500 50  0000 C CNN
	1    5300 2500
	1    0    0    -1  
$EndComp
Wire Wire Line
	5300 2500 5300 2600
$Comp
L Transistor_FET:BSS138 Q2
U 1 1 5E3F0CA6
P 5050 3900
F 0 "Q2" V 5301 3900 50  0000 C CNN
F 1 "BSS138" V 5392 3900 50  0000 C CNN
F 2 "Package_TO_SOT_SMD:SOT-23" H 5250 3825 50  0001 L CIN
F 3 "https://www.fairchildsemi.com/datasheets/BS/BSS138.pdf" H 5050 3900 50  0001 L CNN
F 4 "Diodes Inc" H 5050 3900 50  0001 C CNN "Mfr"
F 5 "BSS138-7-F" H 5050 3900 50  0001 C CNN "Mfr PN"
F 6 "20" H 5050 3900 50  0001 C CNN "LCSC Min Qty"
F 7 "C40912" H 5050 3900 50  0001 C CNN "LCSC PN"
F 8 "1" H 5050 3900 50  0001 C CNN "DK Min Qty"
F 9 "BSS138-FDICT-ND" H 5050 3900 50  0001 C CNN "DK PN"
F 10 ".20" H 5050 3900 50  0001 C CNN "DK Price"
F 11 ".022" H 5050 3900 50  0001 C CNN "LCSC Price"
	1    5050 3900
	0    1    1    0   
$EndComp
$Comp
L Device:R_US R2
U 1 1 5E3F0CB0
P 4800 3800
F 0 "R2" H 4732 3754 50  0000 R CNN
F 1 "10k" H 4732 3845 50  0000 R CNN
F 2 "Resistor_SMD:R_0805_2012Metric" V 4840 3790 50  0001 C CNN
F 3 "~" H 4800 3800 50  0001 C CNN
F 4 "10" H 4800 3800 50  0001 C CNN "DK Min Qty"
F 5 "311-10.0KCRCT-ND" H 4800 3800 50  0001 C CNN "DK PN"
F 6 ".04" H 4800 3800 50  0001 C CNN "DK Price"
F 7 "100" H 4800 3800 50  0001 C CNN "LCSC Min Qty"
F 8 "C115309" H 4800 3800 50  0001 C CNN "LCSC PN"
F 9 ".0013" H 4800 3800 50  0001 C CNN "LCSC Price"
	1    4800 3800
	1    0    0    1   
$EndComp
$Comp
L Device:R_US R5
U 1 1 5E3F0CBA
P 5300 3800
F 0 "R5" H 5368 3846 50  0000 L CNN
F 1 "10k" H 5368 3755 50  0000 L CNN
F 2 "Resistor_SMD:R_0805_2012Metric" V 5340 3790 50  0001 C CNN
F 3 "~" H 5300 3800 50  0001 C CNN
F 4 "10" H 5300 3800 50  0001 C CNN "DK Min Qty"
F 5 "311-10.0KCRCT-ND" H 5300 3800 50  0001 C CNN "DK PN"
F 6 ".04" H 5300 3800 50  0001 C CNN "DK Price"
F 7 "100" H 5300 3800 50  0001 C CNN "LCSC Min Qty"
F 8 "C115309" H 5300 3800 50  0001 C CNN "LCSC PN"
F 9 ".0013" H 5300 3800 50  0001 C CNN "LCSC Price"
	1    5300 3800
	1    0    0    -1  
$EndComp
Text GLabel 4750 4000 0    50   BiDi ~ 0
GPIO2
Wire Wire Line
	4750 4000 4800 4000
Wire Wire Line
	4800 4000 4800 3950
Connection ~ 4800 4000
Wire Wire Line
	4800 4000 4850 4000
$Comp
L power:+3.3V #PWR08
U 1 1 5E3F0CC9
P 4800 3550
F 0 "#PWR08" H 4800 3400 50  0001 C CNN
F 1 "+3.3V" H 4800 3690 50  0000 C CNN
F 2 "" H 4800 3550 50  0000 C CNN
F 3 "" H 4800 3550 50  0000 C CNN
	1    4800 3550
	1    0    0    -1  
$EndComp
Text GLabel 5350 4000 2    50   BiDi ~ 0
I2C_DATA
Wire Wire Line
	5250 4000 5300 4000
Wire Wire Line
	5300 4000 5300 3950
Wire Wire Line
	5350 4000 5300 4000
Connection ~ 5300 4000
Wire Wire Line
	4800 3550 4800 3650
Wire Wire Line
	4800 3650 5050 3650
Wire Wire Line
	5050 3650 5050 3700
Connection ~ 4800 3650
$Comp
L power:+5V #PWR011
U 1 1 5E3F0CDC
P 5300 3550
F 0 "#PWR011" H 5300 3400 50  0001 C CNN
F 1 "+5V" H 5300 3690 50  0000 C CNN
F 2 "" H 5300 3550 50  0000 C CNN
F 3 "" H 5300 3550 50  0000 C CNN
	1    5300 3550
	1    0    0    -1  
$EndComp
Wire Wire Line
	5300 3550 5300 3650
Text GLabel 1150 2650 0    50   BiDi ~ 0
GPIO2
$Comp
L Transistor_FET:BSS138 Q3
U 1 1 5E3F7071
P 5050 4950
F 0 "Q3" V 5301 4950 50  0000 C CNN
F 1 "BSS138" V 5392 4950 50  0000 C CNN
F 2 "Package_TO_SOT_SMD:SOT-23" H 5250 4875 50  0001 L CIN
F 3 "https://www.fairchildsemi.com/datasheets/BS/BSS138.pdf" H 5050 4950 50  0001 L CNN
F 4 "Diodes Inc" H 5050 4950 50  0001 C CNN "Mfr"
F 5 "BSS138-7-F" H 5050 4950 50  0001 C CNN "Mfr PN"
F 6 "20" H 5050 4950 50  0001 C CNN "LCSC Min Qty"
F 7 "C40912" H 5050 4950 50  0001 C CNN "LCSC PN"
F 8 "1" H 5050 4950 50  0001 C CNN "DK Min Qty"
F 9 "BSS138-FDICT-ND" H 5050 4950 50  0001 C CNN "DK PN"
F 10 ".20" H 5050 4950 50  0001 C CNN "DK Price"
F 11 ".022" H 5050 4950 50  0001 C CNN "LCSC Price"
	1    5050 4950
	0    1    1    0   
$EndComp
$Comp
L Device:R_US R3
U 1 1 5E3F707B
P 4800 4850
F 0 "R3" H 4732 4804 50  0000 R CNN
F 1 "10k" H 4732 4895 50  0000 R CNN
F 2 "Resistor_SMD:R_0805_2012Metric" V 4840 4840 50  0001 C CNN
F 3 "~" H 4800 4850 50  0001 C CNN
F 4 "10" H 4800 4850 50  0001 C CNN "DK Min Qty"
F 5 "311-10.0KCRCT-ND" H 4800 4850 50  0001 C CNN "DK PN"
F 6 ".04" H 4800 4850 50  0001 C CNN "DK Price"
F 7 "100" H 4800 4850 50  0001 C CNN "LCSC Min Qty"
F 8 "C115309" H 4800 4850 50  0001 C CNN "LCSC PN"
F 9 ".0013" H 4800 4850 50  0001 C CNN "LCSC Price"
	1    4800 4850
	1    0    0    1   
$EndComp
$Comp
L Device:R_US R6
U 1 1 5E3F7085
P 5300 4850
F 0 "R6" H 5368 4896 50  0000 L CNN
F 1 "10k" H 5368 4805 50  0000 L CNN
F 2 "Resistor_SMD:R_0805_2012Metric" V 5340 4840 50  0001 C CNN
F 3 "~" H 5300 4850 50  0001 C CNN
F 4 "10" H 5300 4850 50  0001 C CNN "DK Min Qty"
F 5 "311-10.0KCRCT-ND" H 5300 4850 50  0001 C CNN "DK PN"
F 6 ".04" H 5300 4850 50  0001 C CNN "DK Price"
F 7 "100" H 5300 4850 50  0001 C CNN "LCSC Min Qty"
F 8 "C115309" H 5300 4850 50  0001 C CNN "LCSC PN"
F 9 ".0013" H 5300 4850 50  0001 C CNN "LCSC Price"
	1    5300 4850
	1    0    0    -1  
$EndComp
Text GLabel 4750 5050 0    50   BiDi ~ 0
GPIO3
Wire Wire Line
	4750 5050 4800 5050
Wire Wire Line
	4800 5050 4800 5000
Connection ~ 4800 5050
Wire Wire Line
	4800 5050 4850 5050
$Comp
L power:+3.3V #PWR09
U 1 1 5E3F7094
P 4800 4600
F 0 "#PWR09" H 4800 4450 50  0001 C CNN
F 1 "+3.3V" H 4800 4740 50  0000 C CNN
F 2 "" H 4800 4600 50  0000 C CNN
F 3 "" H 4800 4600 50  0000 C CNN
	1    4800 4600
	1    0    0    -1  
$EndComp
Text GLabel 5350 5050 2    50   BiDi ~ 0
I2C_CLK
Wire Wire Line
	5250 5050 5300 5050
Wire Wire Line
	5300 5050 5300 5000
Wire Wire Line
	5350 5050 5300 5050
Connection ~ 5300 5050
Wire Wire Line
	4800 4600 4800 4700
Wire Wire Line
	4800 4700 5050 4700
Wire Wire Line
	5050 4700 5050 4750
Connection ~ 4800 4700
$Comp
L power:+5V #PWR012
U 1 1 5E3F70A7
P 5300 4600
F 0 "#PWR012" H 5300 4450 50  0001 C CNN
F 1 "+5V" H 5300 4740 50  0000 C CNN
F 2 "" H 5300 4600 50  0000 C CNN
F 3 "" H 5300 4600 50  0000 C CNN
	1    5300 4600
	1    0    0    -1  
$EndComp
Wire Wire Line
	5300 4600 5300 4700
Text GLabel 1150 2750 0    50   BiDi ~ 0
GPIO3
$Comp
L 2020-02-06_22-51-58:DS2406P+ U1
U 1 1 5E3FECF3
P 6350 3000
F 0 "U1" H 6700 3250 60  0000 C CNN
F 1 "DS2406P+" H 7600 3250 60  0000 C CNN
F 2 "footprints:DS2406P&plus_T&R" H 7600 3240 60  0001 C CNN
F 3 "" H 6350 3000 60  0000 C CNN
F 4 "1" H 6350 3000 50  0001 C CNN "DK Min Qty"
F 5 "DS2406P+T&RCT-ND" H 6350 3000 50  0001 C CNN "DK PN"
F 6 "Maxim" H 6350 3000 50  0001 C CNN "Mfr"
F 7 "DS2406P+T&R" H 6350 3000 50  0001 C CNN "Mfr PN"
F 8 "4.72" H 6350 3000 50  0001 C CNN "DK Price"
	1    6350 3000
	1    0    0    -1  
$EndComp
$Comp
L power:+5V #PWR014
U 1 1 5E3FF7F6
P 7250 2500
F 0 "#PWR014" H 7250 2350 50  0001 C CNN
F 1 "+5V" H 7250 2640 50  0000 C CNN
F 2 "" H 7250 2500 50  0000 C CNN
F 3 "" H 7250 2500 50  0000 C CNN
	1    7250 2500
	1    0    0    -1  
$EndComp
$Comp
L power:GND #PWR015
U 1 1 5E3FFDE1
P 7250 3700
F 0 "#PWR015" H 7250 3450 50  0001 C CNN
F 1 "GND" H 7250 3550 50  0000 C CNN
F 2 "" H 7250 3700 50  0000 C CNN
F 3 "" H 7250 3700 50  0000 C CNN
	1    7250 3700
	1    0    0    -1  
$EndComp
Text GLabel 6350 3100 0    50   BiDi ~ 0
1WIRE
$Comp
L Device:R_US R7
U 1 1 5E4004A7
P 8200 2800
F 0 "R7" H 8133 2754 50  0000 R CNN
F 1 "100k" H 8133 2845 50  0000 R CNN
F 2 "Resistor_SMD:R_0805_2012Metric" V 8240 2790 50  0001 C CNN
F 3 "~" H 8200 2800 50  0001 C CNN
F 4 "10" H 8200 2800 50  0001 C CNN "DK Min Qty"
F 5 "311-100KCRCT-ND" H 8200 2800 50  0001 C CNN "DK PN"
F 6 ".04" H 8200 2800 50  0001 C CNN "DK Price"
F 7 "100" H 8200 2800 50  0001 C CNN "LCSC Min Qty"
F 8 "C118847" H 8200 2800 50  0001 C CNN "LCSC PN"
F 9 ".0013" H 8200 2800 50  0001 C CNN "LCSC Price"
	1    8200 2800
	1    0    0    1   
$EndComp
$Comp
L power:+5V #PWR019
U 1 1 5E400F03
P 8200 2500
F 0 "#PWR019" H 8200 2350 50  0001 C CNN
F 1 "+5V" H 8200 2640 50  0000 C CNN
F 2 "" H 8200 2500 50  0000 C CNN
F 3 "" H 8200 2500 50  0000 C CNN
	1    8200 2500
	1    0    0    -1  
$EndComp
Wire Wire Line
	8200 2500 8200 2600
Wire Wire Line
	8200 2950 8200 3000
Wire Wire Line
	8200 3000 8150 3000
$Comp
L Connector_Generic:Conn_01x02 J2
U 1 1 5E40591B
P 8550 2900
F 0 "J2" H 8630 2892 50  0000 L CNN
F 1 "*" H 8630 2801 50  0001 L CNN
F 2 "Connector_PinHeader_2.54mm:PinHeader_1x02_P2.54mm_Vertical" H 8550 2900 50  0001 C CNN
F 3 "~" H 8550 2900 50  0001 C CNN
F 4 "1" H 8550 2900 50  0001 C CNN "DK Min Qty"
F 5 "2057-PH1-02-UA-ND" H 8550 2900 50  0001 C CNN "DK PN"
F 6 ".10" H 8550 2900 50  0001 C CNN "DK Price"
F 7 "50" H 8550 2900 50  0001 C CNN "LCSC Min Qty"
F 8 "C358684" H 8550 2900 50  0001 C CNN "LCSC PN"
F 9 ".007" H 8550 2900 50  0001 C CNN "LCSC Price"
	1    8550 2900
	1    0    0    -1  
$EndComp
Wire Wire Line
	8200 3000 8350 3000
Connection ~ 8200 3000
Wire Wire Line
	8350 2900 8350 2600
Wire Wire Line
	8350 2600 8200 2600
Connection ~ 8200 2600
Wire Wire Line
	8200 2600 8200 2650
$Comp
L Timer_RTC:DS1307Z+ U2
U 1 1 5E40A6E1
P 7350 4800
F 0 "U2" H 7894 4846 50  0000 L CNN
F 1 "DS1307Z+" H 7894 4755 50  0000 L CNN
F 2 "Package_SO:SOIC-8_3.9x4.9mm_P1.27mm" H 7350 4300 50  0001 C CNN
F 3 "https://datasheets.maximintegrated.com/en/ds/DS1307.pdf" H 7350 4800 50  0001 C CNN
F 4 "Maxim" H 7350 4800 50  0001 C CNN "Mfr"
F 5 "DS1307Z+T&R" H 7350 4800 50  0001 C CNN "Mfr PN"
F 6 "1" H 7350 4800 50  0001 C CNN "LCSC Min Qty"
F 7 "C9868" H 7350 4800 50  0001 C CNN "LCSC PN"
F 8 "1" H 7350 4800 50  0001 C CNN "DK Min Qty"
F 9 "DS1307Z+T&RCT-ND" H 7350 4800 50  0001 C CNN "DK PN"
F 10 "3.31" H 7350 4800 50  0001 C CNN "DK Price"
F 11 ".55" H 7350 4800 50  0001 C CNN "LCSC Price"
	1    7350 4800
	1    0    0    -1  
$EndComp
Text GLabel 6850 4600 0    50   BiDi ~ 0
I2C_CLK
Text GLabel 6850 4700 0    50   BiDi ~ 0
I2C_DATA
NoConn ~ 7850 4800
$Comp
L power:GND #PWR018
U 1 1 5E4105FD
P 7750 4300
F 0 "#PWR018" H 7750 4050 50  0001 C CNN
F 1 "GND" H 7750 4150 50  0000 C CNN
F 2 "" H 7750 4300 50  0000 C CNN
F 3 "" H 7750 4300 50  0000 C CNN
	1    7750 4300
	1    0    0    -1  
$EndComp
$Comp
L power:GND #PWR017
U 1 1 5E410AD9
P 7350 5200
F 0 "#PWR017" H 7350 4950 50  0001 C CNN
F 1 "GND" H 7350 5050 50  0000 C CNN
F 2 "" H 7350 5200 50  0000 C CNN
F 3 "" H 7350 5200 50  0000 C CNN
	1    7350 5200
	1    0    0    -1  
$EndComp
Wire Wire Line
	7350 4300 7350 4400
$Comp
L power:+5V #PWR016
U 1 1 5E413295
P 7250 4400
F 0 "#PWR016" H 7250 4250 50  0001 C CNN
F 1 "+5V" H 7250 4540 50  0000 C CNN
F 2 "" H 7250 4400 50  0000 C CNN
F 3 "" H 7250 4400 50  0000 C CNN
	1    7250 4400
	1    0    0    -1  
$EndComp
$Comp
L Device:Crystal_GND3_Small Y1
U 1 1 5E4139E6
P 6600 5000
F 0 "Y1" V 6554 5087 50  0000 L CNN
F 1 "32.768kHz" V 6645 5087 50  0000 L CNN
F 2 "ECS-.327-12:XTAL_ECS-.327-12.5-13FLX-C" H 6600 5000 50  0001 C CNN
F 3 "~" H 6600 5000 50  0001 C CNN
F 4 "1" H 6600 5000 50  0001 C CNN "DK Min Qty"
F 5 "XC1911CT-ND" H 6600 5000 50  0001 C CNN "DK PN"
F 6 ".72" H 6600 5000 50  0001 C CNN "DK Price"
F 7 "ECS" H 6600 5000 50  0001 C CNN "Mfr"
F 8 "ECS-.327-12.5-13FLX-C" H 6600 5000 50  0001 C CNN "Mfr PN"
F 9 "1" H 6600 5000 50  0001 C CNN "LCSC Min Qty"
F 10 "C164061" H 6600 5000 50  0001 C CNN "LCSC PN"
F 11 ".17" H 6600 5000 50  0001 C CNN "LCSC Price"
	1    6600 5000
	0    -1   1    0   
$EndComp
Wire Wire Line
	6600 4900 6850 4900
Wire Wire Line
	6850 5000 6850 5100
Wire Wire Line
	6850 5100 6600 5100
$Comp
L power:GND #PWR013
U 1 1 5E41946F
P 6750 5200
F 0 "#PWR013" H 6750 4950 50  0001 C CNN
F 1 "GND" H 6750 5050 50  0000 C CNN
F 2 "" H 6750 5200 50  0000 C CNN
F 3 "" H 6750 5200 50  0000 C CNN
	1    6750 5200
	1    0    0    -1  
$EndComp
Wire Wire Line
	6700 5000 6750 5000
Wire Wire Line
	6750 5000 6750 5200
$Comp
L Connector:Barrel_Jack J1
U 1 1 5E424B4A
P 2550 5200
F 0 "J1" H 2607 5525 50  0000 C CNN
F 1 "Barrel_Jack" H 2607 5434 50  0000 C CNN
F 2 "Connector_BarrelJack:BarrelJack_CUI_PJ-102AH_Horizontal" H 2600 5160 50  0001 C CNN
F 3 "~" H 2600 5160 50  0001 C CNN
F 4 "1" H 2550 5200 50  0001 C CNN "DK Min Qty"
F 5 "CP-102AH-ND" H 2550 5200 50  0001 C CNN "DK PN"
F 6 ".76" H 2550 5200 50  0001 C CNN "DK Price"
F 7 "1" H 2550 5200 50  0001 C CNN "LCSC Min Qty"
F 8 "C84007" H 2550 5200 50  0001 C CNN "LCSC PN"
F 9 ".22" H 2550 5200 50  0001 C CNN "LCSC Price"
F 10 "CUI" H 2550 5200 50  0001 C CNN "Mfr"
F 11 "PJ-102AH" H 2550 5200 50  0001 C CNN "Mfr PN"
	1    2550 5200
	1    0    0    -1  
$EndComp
$Comp
L power:+5V #PWR04
U 1 1 5E425D86
P 2950 5100
F 0 "#PWR04" H 2950 4950 50  0001 C CNN
F 1 "+5V" H 2950 5240 50  0000 C CNN
F 2 "" H 2950 5100 50  0000 C CNN
F 3 "" H 2950 5100 50  0000 C CNN
	1    2950 5100
	1    0    0    -1  
$EndComp
$Comp
L power:GND #PWR05
U 1 1 5E42735D
P 2950 5300
F 0 "#PWR05" H 2950 5050 50  0001 C CNN
F 1 "GND" H 2950 5150 50  0000 C CNN
F 2 "" H 2950 5300 50  0000 C CNN
F 3 "" H 2950 5300 50  0000 C CNN
	1    2950 5300
	1    0    0    -1  
$EndComp
Wire Wire Line
	2850 5100 2950 5100
Wire Wire Line
	2950 5300 2850 5300
$Comp
L Connector:RJ45 J3
U 1 1 5E4471A6
P 9300 4000
F 0 "J3" H 8970 4096 50  0000 R CNN
F 1 "RJ45" H 8970 4005 50  0000 R CNN
F 2 "Connector_RJ:RJ45_Amphenol_54602-x08_Horizontal" V 9300 4025 50  0001 C CNN
F 3 "~" V 9300 4025 50  0001 C CNN
F 4 "1" H 9300 4000 50  0001 C CNN "DK Min Qty"
F 5 "FRJAE-408-ND" H 9300 4000 50  0001 C CNN "DK PN"
F 6 "1.87" H 9300 4000 50  0001 C CNN "DK Price"
F 7 "	Amphenol ICC (FCI)" H 9300 4000 50  0001 C CNN "Mfr"
F 8 "FRJAE-408" H 9300 4000 50  0001 C CNN "Mfr PN"
F 9 "1" H 9300 4000 50  0001 C CNN "LCSC Min Qty"
F 10 "C464576" H 9300 4000 50  0001 C CNN "LCSC PN"
F 11 "2.18" H 9300 4000 50  0001 C CNN "LCSC Price"
	1    9300 4000
	-1   0    0    -1  
$EndComp
Wire Wire Line
	8900 3600 8850 3600
Wire Wire Line
	8850 3600 8850 3800
Wire Wire Line
	8850 3800 8900 3800
Wire Wire Line
	8850 3800 8850 3900
Wire Wire Line
	8850 3900 8900 3900
Connection ~ 8850 3800
Wire Wire Line
	8850 3900 8850 4200
Wire Wire Line
	8850 4200 8900 4200
Connection ~ 8850 3900
Wire Wire Line
	8850 4200 8850 4450
Connection ~ 8850 4200
$Comp
L power:GND #PWR021
U 1 1 5E454062
P 8850 4450
F 0 "#PWR021" H 8850 4200 50  0001 C CNN
F 1 "GND" H 8850 4300 50  0000 C CNN
F 2 "" H 8850 4450 50  0000 C CNN
F 3 "" H 8850 4450 50  0000 C CNN
	1    8850 4450
	1    0    0    -1  
$EndComp
Wire Wire Line
	8900 4100 8800 4100
Wire Wire Line
	8800 4100 8800 3450
$Comp
L power:+5V #PWR020
U 1 1 5E457646
P 8800 3450
F 0 "#PWR020" H 8800 3300 50  0001 C CNN
F 1 "+5V" H 8800 3590 50  0000 C CNN
F 2 "" H 8800 3450 50  0000 C CNN
F 3 "" H 8800 3450 50  0000 C CNN
	1    8800 3450
	1    0    0    -1  
$EndComp
Text GLabel 8750 4000 0    50   BiDi ~ 0
1WIRE
Text GLabel 8750 3700 0    50   BiDi ~ 0
I2C_CLK
Text GLabel 8750 4300 0    50   BiDi ~ 0
I2C_DATA
Wire Wire Line
	8750 4300 8900 4300
Wire Wire Line
	8750 4000 8900 4000
Wire Wire Line
	8750 3700 8900 3700
$Comp
L Device:Battery_Cell BT1
U 1 1 5E495F5A
P 7600 4300
F 0 "BT1" V 7850 4350 50  0000 C CNN
F 1 "CR2032" V 7750 4350 50  0000 C CNN
F 2 "Battery:BatteryHolder_Keystone_103_1x20mm" H 7600 4300 50  0001 L BNN
F 3 "" H 7600 4300 50  0001 L BNN
F 4 "1" H 7600 4300 50  0001 C CNN "DK Min Qty"
F 5 "36-103-ND" H 7600 4300 50  0001 C CNN "DK PN"
F 6 "1.49" H 7600 4300 50  0001 C CNN "DK Price"
F 7 "Keystone" H 7600 4300 50  0001 C CNN "Mfr"
F 8 "103" H 7600 4300 50  0001 C CNN "Mfr PN"
F 9 "1" H 7600 4300 50  0001 C CNN "LCSC Min Qty"
F 10 "C238065" H 7600 4300 50  0001 C CNN "LCSC PN"
F 11 "1.62" H 7600 4300 50  0001 C CNN "LCSC Price"
	1    7600 4300
	0    -1   -1   0   
$EndComp
$Comp
L Device:R_US R8
U 1 1 5E49F326
P 9050 2900
F 0 "R8" H 8983 2854 50  0000 R CNN
F 1 "100k" H 8983 2945 50  0000 R CNN
F 2 "Resistor_SMD:R_0805_2012Metric" V 9090 2890 50  0001 C CNN
F 3 "~" H 9050 2900 50  0001 C CNN
F 4 "10" H 9050 2900 50  0001 C CNN "DK Min Qty"
F 5 "311-100KCRCT-ND" H 9050 2900 50  0001 C CNN "DK PN"
F 6 ".04" H 9050 2900 50  0001 C CNN "DK Price"
F 7 "100" H 9050 2900 50  0001 C CNN "LCSC Min Qty"
F 8 "C118847" H 9050 2900 50  0001 C CNN "LCSC PN"
F 9 ".0013" H 9050 2900 50  0001 C CNN "LCSC Price"
	1    9050 2900
	1    0    0    1   
$EndComp
$Comp
L power:+5V #PWR022
U 1 1 5E49F330
P 9050 2600
F 0 "#PWR022" H 9050 2450 50  0001 C CNN
F 1 "+5V" H 9050 2740 50  0000 C CNN
F 2 "" H 9050 2600 50  0000 C CNN
F 3 "" H 9050 2600 50  0000 C CNN
	1    9050 2600
	1    0    0    -1  
$EndComp
Wire Wire Line
	9050 2600 9050 2700
Wire Wire Line
	9050 3050 9050 3100
$Comp
L Connector_Generic:Conn_01x02 J4
U 1 1 5E49F33D
P 9400 3000
F 0 "J4" H 9480 2992 50  0000 L CNN
F 1 "*" H 9480 2901 50  0001 L CNN
F 2 "Connector_PinHeader_2.54mm:PinHeader_1x02_P2.54mm_Vertical" H 9400 3000 50  0001 C CNN
F 3 "~" H 9400 3000 50  0001 C CNN
F 4 "1" H 9400 3000 50  0001 C CNN "DK Min Qty"
F 5 "2057-PH1-02-UA-ND" H 9400 3000 50  0001 C CNN "DK PN"
F 6 ".10" H 9400 3000 50  0001 C CNN "DK Price"
F 7 "50" H 9400 3000 50  0001 C CNN "LCSC Min Qty"
F 8 "C358684" H 9400 3000 50  0001 C CNN "LCSC PN"
F 9 ".007" H 9400 3000 50  0001 C CNN "LCSC Price"
	1    9400 3000
	1    0    0    -1  
$EndComp
Wire Wire Line
	9050 3100 9200 3100
Wire Wire Line
	9200 3000 9200 2700
Wire Wire Line
	9200 2700 9050 2700
Connection ~ 9050 2700
Wire Wire Line
	9050 2700 9050 2750
Wire Wire Line
	8150 3100 9050 3100
Connection ~ 9050 3100
Wire Wire Line
	7350 4300 7400 4300
Wire Wire Line
	7700 4300 7750 4300
$EndSCHEMATC
